{
    "IcoMoonType": "selection",
    "icons": [
        {
            "icon": {
                "paths": [
                    "M528.502 692.588c10.168 0 18.028-7.859 18.028-18.028 0-10.163-7.859-18.028-18.028-18.028s-18.028 7.859-18.028 18.028c0.005 10.168 7.859 18.028 18.028 18.028z",
                    "M672.722 476.262c10.163 0 18.028-7.859 18.028-18.028s-7.859-18.028-18.028-18.028c-10.168 0-18.028 7.859-18.028 18.028s7.859 18.028 18.028 18.028z",
                    "M204.017 764.692c10.168 0 18.028-7.854 18.028-18.028s-7.859-18.028-18.028-18.028c-10.168 0-18.028 7.854-18.028 18.028s7.854 18.028 18.028 18.028z",
                    "M798.843 183.178c-0.031-0.189-0.046-0.379-0.077-0.563-0.056-0.404-0.123-0.804-0.21-1.198-0.169-0.768-0.379-1.521-0.635-2.253-0.123-0.41-0.266-0.804-0.42-1.198-0.072-0.169-0.138-0.333-0.21-0.492-0.184-0.384-0.369-0.763-0.563-1.126-0.102-0.169-0.184-0.328-0.282-0.492-0.225-0.358-0.466-0.712-0.707-1.060-0.102-0.138-0.184-0.282-0.282-0.425-0.256-0.338-0.512-0.666-0.773-0.983-0.031-0.026-0.046-0.051-0.072-0.072-0.102-0.118-0.184-0.241-0.287-0.353-0.225-0.241-0.466-0.481-0.707-0.707l-160.471-160.123c-3.395-3.359-7.977-5.228-12.749-5.212h-543.14c-39.276 0-71.547 32.077-71.547 71.337v192.358c0 0.010 0 0.015 0 0.026v207.104c0 0.005 0 0.015 0 0.026v467.978c0 39.265 32.266 71.337 71.547 71.337h650.107c39.276 0 71.547-32.072 71.547-71.337v-760.74c0-0.189 0-0.379 0-0.563-0.015-0.425-0.031-0.845-0.072-1.27zM540.626 406.779h16.184v44.575h0.292l20.89-44.575h16.184l-22.508 45.901 22.508 57.078h-16.63l-15.734-41.047-5.002 9.416v31.631h-16.184v-102.979zM483.092 478.72h15.299v7.352c0 7.357 3.241 10.004 8.387 10.004 5.151 0 8.392-2.647 8.392-10.004 0-7.501-3.241-13.092-13.829-22.359-13.537-11.914-17.807-20.449-17.807-32.215 0-16.476 8.090-25.892 23.828-25.892 15.744 0 23.839 9.416 23.839 25.892v3.241h-15.304v-4.265c0-7.363-2.944-10.153-8.090-10.153-5.151 0-8.090 2.796-8.090 10.153 0 7.501 3.241 13.092 13.829 22.359 13.537 11.914 17.802 20.449 17.802 32.215 0 16.476-8.238 25.892-24.125 25.892-15.892 0-24.131-9.416-24.131-25.892v-6.328zM461.594 406.779l16.476 102.979h-16.328l-2.796-18.683h-19.855l-2.796 18.683h-14.858l16.476-102.979h23.68zM374.195 406.779h50.017v14.71h-16.916v88.269h-16.179v-88.269h-16.922v-14.71zM222.044 115.722h108.16v36.055h-108.16v-36.055zM222.044 187.827h108.16v36.055h-108.16v-36.055zM149.934 115.722h36.055v36.055h-36.055v-36.055zM149.934 187.827h36.055v36.055h-36.055v-36.055zM204.017 692.588c4.296 0 8.433 0.573 12.462 1.551l69.576-96.829c-6.211-8.801-9.928-19.436-9.928-30.909 0-29.655 24.422-54.083 54.083-54.083 29.645 0 54.083 24.428 54.083 54.083 0 2.519-0.435 4.884-0.773 7.322l100.204 70.63c9.759-14.392 26.25-23.869 44.785-23.869 5.97 0 11.648 1.137 17.039 2.959l86.124-130.632c-7.987-9.436-13.030-21.376-13.030-34.575 0-29.655 24.428-54.083 54.083-54.083 29.645 0 54.083 24.428 54.083 54.083s-24.433 54.083-54.083 54.083c-3.451 0-6.804-0.43-10.071-1.060l-88.658 134.431c5.356 8.381 8.591 18.278 8.591 28.872 0 29.655-24.433 54.083-54.083 54.083-26.916 0-49.29-20.234-53.233-46.126l-108.585-76.616c-9.661 8.919-22.436 14.577-36.48 14.577-5.125 0-10.015-0.963-14.72-2.324l-68.803 95.77c7.040 9.134 11.407 20.444 11.407 32.748 0 29.655-24.433 54.083-54.083 54.083-29.66 0-54.083-24.428-54.083-54.083s24.433-54.083 54.093-54.083zM618.639 944.968h-432.65v-36.055h432.65v36.055zM708.562 872.858h-612.71c-9.958 0-18.028-8.069-18.028-18.028v-720.804c-0.113-9.928 7.813-18.084 17.746-18.237 0.169-0.005 0.323-0.005 0.492 0 9.958 0.113 17.925 8.279 17.812 18.237v702.776h594.683c0.169 0 0.338 0 0.512 0 9.953 0.138 17.915 8.325 17.772 18.278-0.138 9.964-8.32 17.92-18.278 17.777zM673.92 166.984c-20.813 0-26.209-7.613-30.7-16.481-4.495-8.873-4.792-18.237-4.792-18.237v-63.939l98.867 98.657h-63.375z",
                    "M449.085 425.027h-0.297l-7.644 52.076h15.596z",
                    "M330.204 584.428c10.168 0 18.028-7.859 18.028-18.028s-7.859-18.028-18.028-18.028c-10.168 0-18.028 7.859-18.028 18.028 0 10.163 7.859 18.028 18.028 18.028z"
                ],
                "attrs": [
                    {},
                    {},
                    {},
                    {},
                    {},
                    {}
                ],
                "width": 804,
                "isMulticolor": false,
                "isMulticolor2": false,
                "grid": 0,
                "tags": [
                    "test-01-01"
                ]
            },
            "attrs": [
                {},
                {},
                {},
                {},
                {},
                {}
            ],
            "properties": {
                "order": 6,
                "id": 1,
                "name": "test-01-01",
                "prevSize": 32,
                "code": 59649
            },
            "setIdx": 0,
            "setId": 6,
            "iconIdx": 0
        },
        {
            "icon": {
                "paths": [
                    "M149.934 187.827h36.055v36.055h-36.055v-36.055z",
                    "M149.934 115.722h36.055v36.055h-36.055v-36.055z",
                    "M185.989 908.913h432.65v36.055h-432.65v-36.055z",
                    "M96.061 115.789c-0.169-0.005-0.323-0.005-0.492 0-9.928 0.154-17.859 8.31-17.746 18.237v720.809c0 9.953 8.069 18.028 18.028 18.028h612.71c9.958 0.138 18.14-7.813 18.278-17.777 0.143-9.953-7.813-18.14-17.772-18.278-0.169 0-0.338 0-0.512 0h-594.678v-702.781c0.113-9.958-7.859-18.125-17.818-18.237z",
                    "M798.843 183.178c-0.031-0.189-0.046-0.379-0.077-0.563-0.056-0.404-0.123-0.804-0.21-1.198-0.169-0.768-0.379-1.521-0.635-2.253-0.123-0.41-0.266-0.804-0.42-1.198-0.072-0.169-0.138-0.333-0.21-0.492-0.184-0.384-0.369-0.763-0.563-1.126-0.102-0.169-0.184-0.328-0.282-0.492-0.225-0.358-0.466-0.712-0.707-1.060-0.102-0.138-0.184-0.282-0.282-0.425-0.256-0.338-0.512-0.666-0.773-0.983-0.031-0.026-0.046-0.051-0.072-0.072-0.102-0.118-0.184-0.241-0.287-0.353-0.225-0.241-0.466-0.481-0.707-0.707l-160.471-160.123c-3.395-3.359-7.977-5.228-12.749-5.212h-543.14c-39.276 0-71.547 32.077-71.547 71.337v192.358c0 0.010 0 0.015 0 0.026v65.198c0 9.856 7.992 17.848 17.848 17.848 9.861 0 17.853-7.992 17.853-17.848v-26.056h0.353v-231.526c0-19.866 15.519-35.282 35.492-35.282h525.112v89.288c0 0-0.21 16.993 8.658 34.504 8.873 17.51 30.208 36.265 62.884 36.265h88.94v742.707c0 19.871-15.519 35.282-35.492 35.282h-650.102c-19.983 0-35.492-15.411-35.492-35.282v-535.009h-0.538c-0.927-8.991-8.433-16.031-17.669-16.031s-16.748 7.040-17.669 16.031h-0.179v1.792c0 0.005 0 0.015 0 0.026v65.198c0 0.005 0 0.015 0 0.026v467.978c0 39.265 32.266 71.337 71.547 71.337h650.107c39.276 0 71.547-32.072 71.547-71.337v-760.74c0-0.189 0-0.379 0-0.563-0.015-0.425-0.031-0.845-0.072-1.27zM673.92 166.984c-20.813 0-26.209-7.613-30.7-16.481-4.495-8.873-4.792-18.237-4.792-18.237v-63.939l98.867 98.657h-63.375z",
                    "M222.044 115.722h108.16v36.055h-108.16v-36.055z",
                    "M204.017 800.748c29.645 0 54.083-24.428 54.083-54.083 0-12.298-4.367-23.608-11.407-32.748l68.803-95.77c4.7 1.362 9.59 2.324 14.72 2.324 14.039 0 26.813-5.652 36.48-14.577l108.585 76.616c3.948 25.892 26.322 46.126 53.233 46.126 29.645 0 54.083-24.428 54.083-54.083 0-10.588-3.236-20.49-8.591-28.872l88.658-134.431c3.267 0.63 6.62 1.060 10.071 1.060 29.645 0 54.083-24.428 54.083-54.083s-24.433-54.083-54.083-54.083c-29.66 0-54.083 24.428-54.083 54.083 0 13.199 5.043 25.139 13.030 34.575l-86.124 130.632c-5.391-1.823-11.069-2.959-17.039-2.959-18.534 0-35.026 9.482-44.785 23.869l-100.204-70.63c0.338-2.437 0.773-4.803 0.773-7.322 0-29.655-24.433-54.083-54.083-54.083-29.66 0-54.083 24.428-54.083 54.083 0 11.474 3.717 22.108 9.928 30.909l-69.576 96.829c-4.029-0.973-8.166-1.551-12.462-1.551-29.66 0-54.083 24.428-54.083 54.083s24.412 54.083 54.072 54.083zM672.722 440.207c10.163 0 18.028 7.859 18.028 18.028s-7.859 18.028-18.028 18.028c-10.168 0-18.028-7.859-18.028-18.028s7.859-18.028 18.028-18.028zM528.502 656.532c10.168 0 18.028 7.859 18.028 18.028s-7.859 18.028-18.028 18.028-18.028-7.859-18.028-18.028c0.005-10.163 7.859-18.028 18.028-18.028zM330.204 548.372c10.168 0 18.028 7.859 18.028 18.028 0 10.163-7.859 18.028-18.028 18.028s-18.028-7.859-18.028-18.028c0-10.168 7.859-18.028 18.028-18.028zM204.017 728.643c10.168 0 18.028 7.854 18.028 18.028s-7.859 18.028-18.028 18.028c-10.168 0-18.028-7.854-18.028-18.028s7.854-18.028 18.028-18.028z",
                    "M222.044 187.827h108.16v36.055h-108.16v-36.055z",
                    "M374.195 421.489h16.922v88.274h16.179v-88.274h16.916v-14.71h-50.017z",
                    "M436.291 509.763l2.796-18.683h19.855l2.796 18.683h16.328l-16.476-102.979h-23.685l-16.476 102.979h14.863zM448.788 425.027h0.302l7.649 52.076h-15.596l7.644-52.076z",
                    "M483.092 478.72v6.323c0 16.476 8.233 25.892 24.131 25.892 15.887 0 24.125-9.416 24.125-25.892 0-11.766-4.265-20.301-17.802-32.215-10.588-9.267-13.829-14.858-13.829-22.359 0-7.363 2.939-10.153 8.090-10.153 5.146 0 8.090 2.796 8.090 10.153v4.265h15.304v-3.241c0-16.476-8.095-25.892-23.839-25.892-15.739 0-23.828 9.416-23.828 25.892 0 11.766 4.27 20.301 17.807 32.215 10.588 9.267 13.829 14.858 13.829 22.359 0 7.357-3.241 10.004-8.392 10.004-5.146 0-8.387-2.647-8.387-10.004v-7.347h-15.299z",
                    "M540.626 406.779v102.984h16.184v-31.631l5.002-9.416 15.734 41.047h16.63l-22.508-57.083 22.508-45.901h-16.184l-20.89 44.575h-0.292v-44.575z"
                ],
                "attrs": [
                    {},
                    {},
                    {},
                    {},
                    {},
                    {},
                    {},
                    {},
                    {},
                    {},
                    {},
                    {}
                ],
                "width": 804,
                "isMulticolor": false,
                "isMulticolor2": false,
                "grid": 0,
                "tags": [
                    "test-01"
                ]
            },
            "attrs": [
                {},
                {},
                {},
                {},
                {},
                {},
                {},
                {},
                {},
                {},
                {},
                {}
            ],
            "properties": {
                "order": 5,
                "id": 0,
                "name": "test-01",
                "prevSize": 32,
                "code": 59733
            },
            "setIdx": 0,
            "setId": 6,
            "iconIdx": 1
        },
        {
            "icon": {
                "paths": [
                    "M72.571 512q0-93.143 38.286-178.857l209.714 574.286q-112-54.286-180-160.571t-68-234.857zM808.571 489.714q0 10.857-1.429 22t-5.714 28.286-6.571 25.143-10 33.714-10 33.143l-43.429 146.286-158.857-472q26.286-1.714 50.286-4.571 10.857-1.143 14.857-10.571t-1.429-17.714-16.286-7.714l-117.143 5.714q-42.857-0.571-115.429-5.714-6.857-0.571-11.714 2.857t-6.571 8.571-0.857 10.571 5.143 9.429 11.143 4.571l45.714 4.571 68.571 187.429-96 288-160-475.429q26.286-1.714 50.286-4.571 10.857-1.143 14.857-10.571t-1.429-17.714-16.286-7.714l-117.143 5.714q-4 0-13.143-0.286t-14.857-0.286q60-91.429 156.857-144.857t210-53.429q84 0 160.286 30.286t136.286 85.143h-5.714q-31.429 0-52.571 23.143t-21.143 54.571q0 6.857 1.143 13.714t2.286 12.286 4.571 13.143 5.143 12 6.857 12.857 7.143 12 8.286 13.714 8 13.143q36 61.143 36 121.143zM519.429 550.286l135.429 369.714q0.571 3.429 2.857 6.286-72 25.143-145.714 25.143-64 0-124-18.286zM897.143 301.143q54.286 99.429 54.286 210.857 0 119.429-59.429 220.286t-159.429 159.143l134.286-387.429q33.714-96.571 33.714-157.714 0-24-3.429-45.143zM512 0q104 0 198.857 40.571t163.429 109.143 109.143 163.429 40.571 198.857-40.571 198.857-109.143 163.429-163.429 109.143-198.857 40.571-198.857-40.571-163.429-109.143-109.143-163.429-40.571-198.857 40.571-198.857 109.143-163.429 163.429-109.143 198.857-40.571zM512 1000.571q98.857 0 189.429-38.857t156-104.286 104.286-156 38.857-189.429-38.857-189.429-104.286-156-156-104.286-189.429-38.857-189.429 38.857-156 104.286-104.286 156-38.857 189.429 38.857 189.429 104.286 156 156 104.286 189.429 38.857z"
                ],
                "attrs": [
                    {}
                ],
                "isMulticolor": false,
                "isMulticolor2": false,
                "tags": [
                    "wordpress"
                ],
                "grid": 14
            },
            "attrs": [
                {}
            ],
            "properties": {
                "order": 1,
                "id": 0,
                "prevSize": 32,
                "code": 59648,
                "name": "wordpress"
            },
            "setIdx": 4,
            "setId": 1,
            "iconIdx": 0
        }
    ],
    "height": 1024,
    "metadata": {
        "name": "process"
    },
    "preferences": {
        "showGlyphs": true,
        "showQuickUse": true,
        "showQuickUse2": true,
        "showSVGs": true,
        "fontPref": {
            "prefix": "icon-",
            "metadata": {
                "fontFamily": "process",
                "majorVersion": 1,
                "minorVersion": 0
            },
            "metrics": {
                "emSize": 1024,
                "baseline": 22,
                "whitespace": 50
            },
            "embed": false,
            "autoHost": true,
            "showSelector": true,
            "showMetrics": true,
            "showMetadata": true,
            "showVersion": true,
            "ie7": true,
            "noie8": false
        },
        "imagePref": {
            "prefix": "icon-",
            "png": true,
            "useClassSelector": true,
            "color": 0,
            "bgColor": 16777215,
            "classSelector": ".icon"
        },
        "historySize": 100,
        "showCodes": true,
        "gridSize": 16,
        "quickUsageToken": {
            "fontawesome-custom": "ZjI5YTIzMGU5YWRjMjRiNjQ4YTE0Zjc4ZDY2MjQ0ZTEjMSMxNDY4OTMzMDQ1IyMj"
        }
    }
}